
--------------------------
Total energy: 3741.66 Joules, including:
	CPU energy: 3741.66 Joules
	GPU energy: 0.00 Joules
--------------------------

--------------------------
Total energy: 5339.18 Joules, including:
	CPU energy: 5339.18 Joules
	GPU energy: 0.00 Joules
--------------------------
