
--------------------------
Total energy: 3202.13 Joules, including:
	CPU energy: 3202.13 Joules
	GPU energy: 0.00 Joules
--------------------------

--------------------------
Total energy: 2899.60 Joules, including:
	CPU energy: 2899.60 Joules
	GPU energy: 0.00 Joules
--------------------------
