
--------------------------
Total energy: 3152.10 Joules, including:
	CPU energy: 3152.10 Joules
	GPU energy: 0.00 Joules
--------------------------

--------------------------
Total energy: 4035.97 Joules, including:
	CPU energy: 4035.97 Joules
	GPU energy: 0.00 Joules
--------------------------
