
--------------------------
Total energy: 3042.10 Joules, including:
	CPU energy: 3042.10 Joules
	GPU energy: 0.00 Joules
--------------------------

--------------------------
Total energy: 2933.02 Joules, including:
	CPU energy: 2933.02 Joules
	GPU energy: 0.00 Joules
--------------------------
