
--------------------------
Total energy: 3771.36 Joules, including:
	CPU energy: 3771.36 Joules
	GPU energy: 0.00 Joules
--------------------------

--------------------------
Total energy: 2720.90 Joules, including:
	CPU energy: 2720.90 Joules
	GPU energy: 0.00 Joules
--------------------------
