
--------------------------
Total energy: 5439.14 Joules, including:
	CPU energy: 5439.14 Joules
	GPU energy: 0.00 Joules
--------------------------

--------------------------
Total energy: 3784.91 Joules, including:
	CPU energy: 3784.91 Joules
	GPU energy: 0.00 Joules
--------------------------
