
--------------------------
Total energy: 2717.03 Joules, including:
	CPU energy: 2717.03 Joules
	GPU energy: 0.00 Joules
--------------------------

--------------------------
Total energy: 2716.81 Joules, including:
	CPU energy: 2716.81 Joules
	GPU energy: 0.00 Joules
--------------------------
