
--------------------------
Total energy: 3711.70 Joules, including:
	CPU energy: 3711.70 Joules
	GPU energy: 0.00 Joules
--------------------------

--------------------------
Total energy: 4352.33 Joules, including:
	CPU energy: 4352.33 Joules
	GPU energy: 0.00 Joules
--------------------------
