
--------------------------
Total energy: 3051.45 Joules, including:
	CPU energy: 3051.45 Joules
	GPU energy: 0.00 Joules
--------------------------

--------------------------
Total energy: 3255.45 Joules, including:
	CPU energy: 3255.45 Joules
	GPU energy: 0.00 Joules
--------------------------
