
--------------------------
Total energy: 5328.92 Joules, including:
	CPU energy: 5328.92 Joules
	GPU energy: 0.00 Joules
--------------------------

--------------------------
Total energy: 4529.06 Joules, including:
	CPU energy: 4529.06 Joules
	GPU energy: 0.00 Joules
--------------------------
