
--------------------------
Total energy: 2714.62 Joules, including:
	CPU energy: 2714.62 Joules
	GPU energy: 0.00 Joules
--------------------------

--------------------------
Total energy: 2715.57 Joules, including:
	CPU energy: 2715.57 Joules
	GPU energy: 0.00 Joules
--------------------------
