
--------------------------
Total energy: 2715.32 Joules, including:
	CPU energy: 2715.32 Joules
	GPU energy: 0.00 Joules
--------------------------

--------------------------
Total energy: 2715.46 Joules, including:
	CPU energy: 2715.46 Joules
	GPU energy: 0.00 Joules
--------------------------
