
--------------------------
Total energy: 2714.89 Joules, including:
	CPU energy: 2714.89 Joules
	GPU energy: 0.00 Joules
--------------------------

--------------------------
Total energy: 2717.77 Joules, including:
	CPU energy: 2717.77 Joules
	GPU energy: 0.00 Joules
--------------------------
