--------------------------

--------------------------
Total energy: 5857.17 Joules, including:
	CPU energy: 5857.17 Joules
	GPU energy: 0.00 Joules
--------------------------

--------------------------
Total energy: 5241.97 Joules, including:
	CPU energy: 5241.97 Joules
	GPU energy: 0.00 Joules
--------------------------
