
--------------------------
Total energy: 2718.67 Joules, including:
	CPU energy: 2718.67 Joules
	GPU energy: 0.00 Joules
--------------------------

--------------------------
Total energy: 2731.01 Joules, including:
	CPU energy: 2731.01 Joules
	GPU energy: 0.00 Joules
--------------------------
