
--------------------------
Total energy: 3691.58 Joules, including:
	CPU energy: 3691.58 Joules
	GPU energy: 0.00 Joules
--------------------------

--------------------------
Total energy: 5634.83 Joules, including:
	CPU energy: 5634.83 Joules
	GPU energy: 0.00 Joules
--------------------------
