--------------------------

--------------------------
Total energy: 4713.52 Joules, including:
	CPU energy: 4713.52 Joules
	GPU energy: 0.00 Joules
--------------------------

--------------------------
Total energy: 5794.83 Joules, including:
	CPU energy: 5794.83 Joules
	GPU energy: 0.00 Joules
--------------------------
