
--------------------------
Total energy: 2753.24 Joules, including:
	CPU energy: 2753.24 Joules
	GPU energy: 0.00 Joules
--------------------------

--------------------------
Total energy: 2720.52 Joules, including:
	CPU energy: 2720.52 Joules
	GPU energy: 0.00 Joules
--------------------------
