
--------------------------
Total energy: 2714.97 Joules, including:
	CPU energy: 2714.97 Joules
	GPU energy: 0.00 Joules
--------------------------

--------------------------
Total energy: 2714.00 Joules, including:
	CPU energy: 2714.00 Joules
	GPU energy: 0.00 Joules
--------------------------
