
--------------------------
Total energy: 5288.60 Joules, including:
	CPU energy: 5288.60 Joules
	GPU energy: 0.00 Joules
--------------------------

--------------------------
Total energy: 3917.42 Joules, including:
	CPU energy: 3917.42 Joules
	GPU energy: 0.00 Joules
--------------------------
