
--------------------------
Total energy: 2713.99 Joules, including:
	CPU energy: 2713.99 Joules
	GPU energy: 0.00 Joules
--------------------------

--------------------------
Total energy: 2715.81 Joules, including:
	CPU energy: 2715.81 Joules
	GPU energy: 0.00 Joules
--------------------------
