
--------------------------
Total energy: 3392.17 Joules, including:
	CPU energy: 3392.17 Joules
	GPU energy: 0.00 Joules
--------------------------

--------------------------
Total energy: 3279.95 Joules, including:
	CPU energy: 3279.95 Joules
	GPU energy: 0.00 Joules
--------------------------
