
--------------------------
Total energy: 2720.02 Joules, including:
	CPU energy: 2720.02 Joules
	GPU energy: 0.00 Joules
--------------------------

--------------------------
Total energy: 2715.70 Joules, including:
	CPU energy: 2715.70 Joules
	GPU energy: 0.00 Joules
--------------------------
