
--------------------------
Total energy: 2716.65 Joules, including:
	CPU energy: 2716.65 Joules
	GPU energy: 0.00 Joules
--------------------------

--------------------------
Total energy: 2718.10 Joules, including:
	CPU energy: 2718.10 Joules
	GPU energy: 0.00 Joules
--------------------------
