
--------------------------
Total energy: 5599.76 Joules, including:
	CPU energy: 5599.76 Joules
	GPU energy: 0.00 Joules
--------------------------

--------------------------
Total energy: 4041.16 Joules, including:
	CPU energy: 4041.16 Joules
	GPU energy: 0.00 Joules
--------------------------
