
--------------------------
Total energy: 2714.57 Joules, including:
	CPU energy: 2714.57 Joules
	GPU energy: 0.00 Joules
--------------------------

--------------------------
Total energy: 2716.73 Joules, including:
	CPU energy: 2716.73 Joules
	GPU energy: 0.00 Joules
--------------------------
