--------------------------

--------------------------
Total energy: 4333.35 Joules, including:
	CPU energy: 4333.35 Joules
	GPU energy: 0.00 Joules
--------------------------

--------------------------
Total energy: 5457.83 Joules, including:
	CPU energy: 5457.83 Joules
	GPU energy: 0.00 Joules
--------------------------
