
--------------------------
Total energy: 5690.64 Joules, including:
	CPU energy: 5690.64 Joules
	GPU energy: 0.00 Joules
--------------------------

--------------------------
Total energy: 3879.70 Joules, including:
	CPU energy: 3879.70 Joules
	GPU energy: 0.00 Joules
--------------------------
