
--------------------------
Total energy: 4541.15 Joules, including:
	CPU energy: 4541.15 Joules
	GPU energy: 0.00 Joules
--------------------------

--------------------------
Total energy: 4233.06 Joules, including:
	CPU energy: 4233.06 Joules
	GPU energy: 0.00 Joules
--------------------------
