
--------------------------
Total energy: 4628.59 Joules, including:
	CPU energy: 4628.59 Joules
	GPU energy: 0.00 Joules
--------------------------

--------------------------
Total energy: 5822.51 Joules, including:
	CPU energy: 5822.51 Joules
	GPU energy: 0.00 Joules
--------------------------
