
--------------------------
Total energy: 4913.53 Joules, including:
	CPU energy: 4913.53 Joules
	GPU energy: 0.00 Joules
--------------------------

--------------------------
Total energy: 4462.29 Joules, including:
	CPU energy: 4462.29 Joules
	GPU energy: 0.00 Joules
--------------------------
