
--------------------------
Total energy: 4120.75 Joules, including:
	CPU energy: 4120.75 Joules
	GPU energy: 0.00 Joules
--------------------------

--------------------------
Total energy: 3795.06 Joules, including:
	CPU energy: 3795.06 Joules
	GPU energy: 0.00 Joules
--------------------------
