
--------------------------
Total energy: 5549.52 Joules, including:
	CPU energy: 5549.52 Joules
	GPU energy: 0.00 Joules
--------------------------

--------------------------
Total energy: 4091.38 Joules, including:
	CPU energy: 4091.38 Joules
	GPU energy: 0.00 Joules
--------------------------
