
--------------------------
Total energy: 4486.21 Joules, including:
	CPU energy: 4486.21 Joules
	GPU energy: 0.00 Joules
--------------------------

--------------------------
Total energy: 2723.02 Joules, including:
	CPU energy: 2723.02 Joules
	GPU energy: 0.00 Joules
--------------------------
