
--------------------------
Total energy: 5636.44 Joules, including:
	CPU energy: 5636.44 Joules
	GPU energy: 0.00 Joules
--------------------------

--------------------------
Total energy: 4118.41 Joules, including:
	CPU energy: 4118.41 Joules
	GPU energy: 0.00 Joules
--------------------------
