--------------------------

--------------------------
Total energy: 4035.59 Joules, including:
	CPU energy: 4035.59 Joules
	GPU energy: 0.00 Joules
--------------------------

--------------------------
Total energy: 5152.56 Joules, including:
	CPU energy: 5152.56 Joules
	GPU energy: 0.00 Joules
--------------------------
