
--------------------------
Total energy: 4330.56 Joules, including:
	CPU energy: 4330.56 Joules
	GPU energy: 0.00 Joules
--------------------------

--------------------------
Total energy: 3836.43 Joules, including:
	CPU energy: 3836.43 Joules
	GPU energy: 0.00 Joules
--------------------------
