
--------------------------
Total energy: 2714.18 Joules, including:
	CPU energy: 2714.18 Joules
	GPU energy: 0.00 Joules
--------------------------

--------------------------
Total energy: 2715.36 Joules, including:
	CPU energy: 2715.36 Joules
	GPU energy: 0.00 Joules
--------------------------
