
--------------------------
Total energy: 5650.46 Joules, including:
	CPU energy: 5650.46 Joules
	GPU energy: 0.00 Joules
--------------------------

--------------------------
Total energy: 4192.32 Joules, including:
	CPU energy: 4192.32 Joules
	GPU energy: 0.00 Joules
--------------------------
