
--------------------------
Total energy: 3177.12 Joules, including:
	CPU energy: 3177.12 Joules
	GPU energy: 0.00 Joules
--------------------------

--------------------------
Total energy: 4755.20 Joules, including:
	CPU energy: 4755.20 Joules
	GPU energy: 0.00 Joules
--------------------------
