
--------------------------
Total energy: 3795.15 Joules, including:
	CPU energy: 3795.15 Joules
	GPU energy: 0.00 Joules
--------------------------

--------------------------
Total energy: 2721.52 Joules, including:
	CPU energy: 2721.52 Joules
	GPU energy: 0.00 Joules
--------------------------
