
--------------------------
Total energy: 4924.35 Joules, including:
	CPU energy: 4924.35 Joules
	GPU energy: 0.00 Joules
--------------------------

--------------------------
Total energy: 4452.82 Joules, including:
	CPU energy: 4452.82 Joules
	GPU energy: 0.00 Joules
--------------------------
