
--------------------------
Total energy: 4419.47 Joules, including:
	CPU energy: 4419.47 Joules
	GPU energy: 0.00 Joules
--------------------------

--------------------------
Total energy: 4391.14 Joules, including:
	CPU energy: 4391.14 Joules
	GPU energy: 0.00 Joules
--------------------------
