
--------------------------
Total energy: 2714.91 Joules, including:
	CPU energy: 2714.91 Joules
	GPU energy: 0.00 Joules
--------------------------

--------------------------
Total energy: 2715.96 Joules, including:
	CPU energy: 2715.96 Joules
	GPU energy: 0.00 Joules
--------------------------
