
--------------------------
Total energy: 3341.52 Joules, including:
	CPU energy: 3341.52 Joules
	GPU energy: 0.00 Joules
--------------------------

--------------------------
Total energy: 4015.63 Joules, including:
	CPU energy: 4015.63 Joules
	GPU energy: 0.00 Joules
--------------------------
