--------------------------

--------------------------
Total energy: 5365.77 Joules, including:
	CPU energy: 5365.77 Joules
	GPU energy: 0.00 Joules
--------------------------

--------------------------
Total energy: 5564.32 Joules, including:
	CPU energy: 5564.32 Joules
	GPU energy: 0.00 Joules
--------------------------

--------------------------
Total energy: 5609.95 Joules, including:
	CPU energy: 5609.95 Joules
	GPU energy: 0.00 Joules
--------------------------
