
--------------------------
Total energy: 2755.95 Joules, including:
	CPU energy: 2755.95 Joules
	GPU energy: 0.00 Joules
--------------------------

--------------------------
Total energy: 2720.75 Joules, including:
	CPU energy: 2720.75 Joules
	GPU energy: 0.00 Joules
--------------------------
