
--------------------------
Total energy: 2714.24 Joules, including:
	CPU energy: 2714.24 Joules
	GPU energy: 0.00 Joules
--------------------------

--------------------------
Total energy: 2717.75 Joules, including:
	CPU energy: 2717.75 Joules
	GPU energy: 0.00 Joules
--------------------------
