
--------------------------
Total energy: 2715.71 Joules, including:
	CPU energy: 2715.71 Joules
	GPU energy: 0.00 Joules
--------------------------

--------------------------
Total energy: 2715.59 Joules, including:
	CPU energy: 2715.59 Joules
	GPU energy: 0.00 Joules
--------------------------
