
--------------------------
Total energy: 5702.77 Joules, including:
	CPU energy: 5702.77 Joules
	GPU energy: 0.00 Joules
--------------------------

--------------------------
Total energy: 4090.16 Joules, including:
	CPU energy: 4090.16 Joules
	GPU energy: 0.00 Joules
--------------------------
